date,name,category,value
2014-01-01,Multinational,Multinational,3
2004-01-01,Multinational,Multinational,3
1999-01-01,Multinational,Multinational,4
1998-01-01,United States,United States,15
2003-01-01,United States,United States,15
2009-01-01,United States,United States,17
2010-01-01,United States,United States,20
2012-01-01,United States,United States,20
2016-01-01,United States,United States,49
2013-01-01,United States,United States,27
2018-01-01,United States,United States,164
2019-01-01,United States,United States,140
2008-01-01,Multinational,Multinational,3
1996-01-01,United States,United States,3
2004-01-01,United States,United States,12
1997-01-01,United States,United States,21
1999-01-01,United States,United States,12
2000-01-01,United States,United States,19
2005-01-01,China,China,3
2013-01-01,Multinational,Multinational,4
2007-01-01,India,India,3
2003-01-01,China,China,2
2010-01-01,South Korea,South Korea,2
2019-01-01,Taiwan/United States,Taiwan/United States,6
2006-01-01,Taiwan/United States,Taiwan/United States,5
2013-01-01,Argentina,Argentina,1
2003-01-01,Japan,Japan,1
2014-01-01,Japan,Japan,13
2015-01-01,China,China,36
2006-01-01,United States,United States,13
2002-01-01,Japan,Japan,3
1995-01-01,United States,United States,3
2008-01-01,United States,United States,12
2015-01-01,Russia,Russia,15
2017-01-01,Russia,Russia,7
2018-01-01,Russia,Russia,17
2002-01-01,United States/Japan/Brazil,United States/Japan/Brazil,1
2016-01-01,Japan,Japan,7
2005-01-01,Multinational,Multinational,2
2001-01-01,Multinational,Multinational,2
2012-01-01,Multinational,Multinational,4
2002-01-01,Multinational,Multinational,3
2006-01-01,Multinational,Multinational,6
2009-01-01,Multinational,Multinational,3
2002-01-01,Russia,Russia,3
2018-01-01,India,India,9
2015-01-01,United States,United States,40
2003-01-01,United States/Japan,United States/Japan,1
2005-01-01,United States,United States,11
2014-01-01,ESA,ESA,3
2016-01-01,ESA,ESA,9
2017-01-01,ESA,ESA,6
2018-01-01,ESA,ESA,7
2015-01-01,ESA,ESA,7
2011-01-01,ESA,ESA,2
2012-01-01,ESA,ESA,2
2017-01-01,Japan,Japan,10
2016-01-01,Canada,Canada,3
2012-01-01,United States/Japan,United States/Japan,1
2011-01-01,United States,United States,24
2011-01-01,Russia,Russia,9
2014-01-01,Russia,Russia,23
2006-01-01,Russia,Russia,2
2007-01-01,Russia,Russia,5
2009-01-01,Russia,Russia,7
2010-01-01,Russia,Russia,10
2013-01-01,Russia,Russia,16
2016-01-01,Russia,Russia,7
2019-01-01,Russia,Russia,12
2009-01-01,Japan,Japan,6
2014-01-01,United States,United States,33
2003-01-01,Greece,Greece,1
2002-01-01,United States,United States,13
2013-01-01,Japan,Japan,4
1990-01-01,ESA/United States,ESA/United States,1
2017-01-01,China,China,29
2015-01-01,Japan,Japan,2
2018-01-01,Japan,Japan,8
2011-01-01,Japan,Japan,3
2017-01-01,United States,United States,228
2006-01-01,Japan,Japan,3
2000-01-01,Japan,Japan,1
1999-01-01,Japan,Japan,1
2006-01-01,South Korea,South Korea,2
2012-01-01,South Korea,South Korea,1
2015-01-01,South Korea,South Korea,1
2013-01-01,South Korea,South Korea,2
1994-01-01,United States,United States,2
2001-01-01,United States,United States,9
1995-01-01,United States/Canada,United States/Canada,1
2007-01-01,United States,United States,20
2017-01-01,United Arab Emirates,United Arab Emirates,1
2005-01-01,Netherlands,Netherlands,1
2000-01-01,Netherlands,Netherlands,1
2016-01-01,China,China,20
2010-01-01,Japan,Japan,2
1994-01-01,Russia,Russia,1
2005-01-01,Russia,Russia,3
2008-01-01,Russia,Russia,5
2012-01-01,Russia,Russia,8
2000-01-01,ESA,ESA,4
2002-01-01,Saudi Arabia,Saudi Arabia,1
2012-01-01,Luxembourg,Luxembourg,3
2009-01-01,Luxembourg,Luxembourg,1
2004-01-01,China,China,4
2008-01-01,China,China,9
2011-01-01,China,China,15
2013-01-01,China,China,14
2018-01-01,China,China,80
2005-01-01,Iran,Iran,1
2010-01-01,China,China,18
2013-01-01,United Kingdom,United Kingdom,6
1988-01-01,United States,United States,1
1991-01-01,United States,United States,1
1993-01-01,United States,United States,2
2008-01-01,Israel,Israel,2
2012-01-01,Germany,Germany,1
2005-01-01,Thailand,Thailand,1
2019-01-01,China,China,35
2012-01-01,China,China,21
2013-01-01,Austria,Austria,1
2009-01-01,United Kingdom,United Kingdom,1
2017-01-01,Italy,Italy,3
2012-01-01,Venezuela,Venezuela,1
2009-01-01,China,China,6
2018-01-01,China/Italy,China/Italy,1
2018-01-01,Spain,Spain,5
2017-01-01,Finland,Finland,1
2016-01-01,Denmark,Denmark,1
2015-01-01,Multinational,Multinational,5
2014-01-01,Germany,Germany,1
2010-01-01,Norway,Norway,1
2014-01-01,Norway,Norway,1
2019-01-01,Spain,Spain,1
2018-01-01,United Arab Emirates,United Arab Emirates,2
2018-01-01,Kazakhstan,Kazakhstan,3
2017-01-01,Algeria,Algeria,1
2019-01-01,Japan,Japan,6
2016-01-01,Algeria,Algeria,3
2010-01-01,Algeria,Algeria,1
2009-01-01,Spain,Spain,3
2013-01-01,Spain,Spain,2
2014-01-01,Spain,Spain,2
2017-01-01,Spain,Spain,2
2019-01-01,Israel,Israel,2
2013-01-01,Israel,Israel,1
1974-01-01,United States,United States,1
2000-01-01,Canada,Canada,1
2005-01-01,Canada,Canada,1
2004-01-01,Canada,Canada,1
2007-01-01,Canada,Canada,2
2013-01-01,Canada,Canada,5
2004-01-01,Argentina,Argentina,2
2009-01-01,United States/Argentina,United States/Argentina,2
2011-01-01,Canada,Canada,3
2013-01-01,United States/Argentina,United States/Argentina,1
2014-01-01,Canada,Canada,4
2011-01-01,Multinational,Multinational,4
2019-01-01,Multinational,Multinational,2
2014-01-01,Argentina,Argentina,2
2015-01-01,Argentina,Argentina,1
1999-01-01,China,China,1
2014-01-01,China,China,19
1994-01-01,Luxembourg,Luxembourg,1
1996-01-01,Luxembourg,Luxembourg,1
1997-01-01,Luxembourg,Luxembourg,1
1999-01-01,Luxembourg,Luxembourg,1
2006-01-01,Luxembourg,Luxembourg,1
2007-01-01,Luxembourg,Luxembourg,1
2008-01-01,Luxembourg,Luxembourg,1
2011-01-01,Luxembourg,Luxembourg,3
1998-01-01,Luxembourg,Luxembourg,1
2000-01-01,Luxembourg,Luxembourg,2
2001-01-01,Luxembourg,Luxembourg,1
2013-01-01,Luxembourg,Luxembourg,3
2014-01-01,Luxembourg,Luxembourg,2
2002-01-01,Luxembourg,Luxembourg,1
2010-01-01,Luxembourg,Luxembourg,2
2018-01-01,Switzerland,Switzerland,1
2019-01-01,Switzerland,Switzerland,1
2015-01-01,India,India,4
2014-01-01,France/Italy,France/Italy,1
2015-01-01,Singapore,Singapore,5
2013-01-01,Azerbaijan,Azerbaijan,1
2018-01-01,Azerbaijan,Azerbaijan,1
2010-01-01,Multinational,Multinational,4
2018-01-01,Bangladesh,Bangladesh,1
2018-01-01,Costa Rica,Costa Rica,1
2019-01-01,Germany,Germany,5
2016-01-01,Belarus,Belarus,1
2018-01-01,Bhutan,Bhutan,1
2001-01-01,Germany,Germany,1
2016-01-01,Germany,Germany,1
2012-01-01,Belarus,Belarus,1
2019-01-01,Lithuania,Lithuania,2
2000-01-01,Brazil,Brazil,1
2016-01-01,Indonesia,Indonesia,2
2019-01-01,France,France,1
2007-01-01,Japan,Japan,1
2017-01-01,Australia,Australia,1
2017-01-01,Bulgaria,Bulgaria,1
2006-01-01,France/United States,France/United States,1
2008-01-01,Canada,Canada,3
2005-01-01,India,India,2
2008-01-01,India,India,1
2010-01-01,India,India,1
2016-01-01,India,India,10
2017-01-01,India,India,8
2014-01-01,China/Brazil,China/Brazil,1
2015-01-01,United Kingdom,United Kingdom,6
2018-01-01,United Kingdom,United Kingdom,10
2018-01-01,Australia,Australia,4
2018-01-01,China/France,China/France,1
2017-01-01,Germany,Germany,3
2009-01-01,Germany,Germany,1
2010-01-01,Germany,Germany,2
2014-01-01,South Africa,South Africa,1
2007-01-01,Italy,Italy,2
2008-01-01,Italy,Italy,1
2010-01-01,Italy,Italy,1
2010-01-01,ESA,ESA,1
2018-01-01,France,France,1
2018-01-01,Germany,Germany,8
2008-01-01,Netherlands,Netherlands,1
2019-01-01,Denmark,Denmark,1
2017-01-01,United Kingdom,United Kingdom,4
2017-01-01,Switzerland,Switzerland,1
2016-01-01,Philippines,Philippines,1
1999-01-01,Germany,Germany,1
2013-01-01,United Arab Emirates,United Arab Emirates,1
2014-01-01,Israel,Israel,2
2018-01-01,Italy,Italy,1
2019-01-01,Ecuador,Ecuador,1
2019-01-01,ESA,ESA,1
2019-01-01,Egypt,Egypt,1
2011-01-01,France,France,4
2019-01-01,India,India,3
1999-01-01,United States/Canada/Japan,United States/Canada/Japan,1
2006-01-01,Israel,Israel,1
2018-01-01,Qatar,Qatar,1
2016-01-01,Multinational,Multinational,3
2017-01-01,Multinational,Multinational,1
2000-01-01,Multinational,Multinational,1
2012-01-01,Canada,Canada,2
2015-01-01,Canada,Canada,2
2003-01-01,Russia/Multinational,Russia/Multinational,1
2018-01-01,Colombia,Colombia,1
1989-01-01,United States,United States,1
2017-01-01,Taiwan,Taiwan,1
2013-01-01,Netherlands,Netherlands,1
2013-01-01,Denmark,Denmark,1
2018-01-01,South Korea,South Korea,5
1992-01-01,Multinational,Multinational,1
2018-01-01,Denmark,Denmark,2
2018-01-01,Luxembourg,Luxembourg,3
2014-01-01,United States/Japan,United States/Japan,1
2018-01-01,United States/Germany,United States/Germany,2
2012-01-01,India,India,2
2011-01-01,India,India,4
2014-01-01,India,India,4
2013-01-01,India,India,3
2016-01-01,Turkey,Turkey,1
2012-01-01,Turkey,Turkey,1
2004-01-01,France/Italy/Belgium/Spain/Greece,France/Italy/Belgium/Spain/Greece,1
2009-01-01,France/Italy/Belgium/Spain/Greece,France/Italy/Belgium/Spain/Greece,1
2017-01-01,Greece/United Kingdom,Greece/United Kingdom,1
2019-01-01,Greece,Greece,1
2018-01-01,Netherlands,Netherlands,2
2002-01-01,Spain,Spain,1
2010-01-01,Spain,Spain,1
2007-01-01,United States/Japan,United States/Japan,1
2018-01-01,United States/Japan,United States/Japan,1
2012-01-01,Japan,Japan,3
2010-01-01,United Kingdom,United Kingdom,1
2012-01-01,United Kingdom,United Kingdom,2
2018-01-01,Finland,Finland,4
2019-01-01,Finland,Finland,2
1996-01-01,United Kingdom,United Kingdom,3
1998-01-01,United Kingdom,United Kingdom,1
2005-01-01,United Kingdom,United Kingdom,2
2008-01-01,United Kingdom,United Kingdom,2
2013-01-01,United Kingdom/ESA,United Kingdom/ESA,1
2018-01-01,Malaysia,Malaysia,2
2002-01-01,ESA/United States/Russia,ESA/United States/Russia,1
1998-01-01,Multinational,Multinational,1
2003-01-01,India,India,1
2018-01-01,Czech Republic,Czech Republic,1
2009-01-01,Turkey,Turkey,1
2019-01-01,Thailand,Thailand,1
2008-01-01,United States/France,United States/France,1
2016-01-01,United States/France,United States/France,1
2018-01-01,Jordan,Jordan,1
2002-01-01,India,India,1
2014-01-01,Kazakhstan,Kazakhstan,3
2011-01-01,Kazakhstan,Kazakhstan,1
2018-01-01,Canada,Canada,4
2008-01-01,Japan,Japan,3
2017-01-01,South Korea,South Korea,2
2015-01-01,Laos,Laos,1
2015-01-01,Indonesia,Indonesia,1
2007-01-01,Indonesia,Indonesia,1
2002-01-01,Argentina,Argentina,2
2019-01-01,Czech Republic,Czech Republic,1
2001-01-01,Morocco/Germany,Morocco/Germany,1
2018-01-01,Philippines,Philippines,1
2006-01-01,Malaysia,Malaysia,1
2009-01-01,Malaysia,Malaysia,1
2014-01-01,Malaysia,Malaysia,1
2011-01-01,India/France,India/France,1
2018-01-01,Indonesia,Indonesia,1
2018-01-01,Multinational,Multinational,1
2012-01-01,Mexico,Mexico,1
2015-01-01,Mexico,Mexico,2
2019-01-01,Vietnam,Vietnam,1
2017-01-01,Morocco,Morocco,1
2018-01-01,Morocco,Morocco,1
2003-01-01,Canada,Canada,2
2003-01-01,Russia,Russia,4
1996-01-01,United States/Canada,United States/Canada,1
2004-01-01,Spain,Spain,1
2019-01-01,Nepal,Nepal,1
2011-01-01,Nigeria,Nigeria,3
2010-01-01,Egypt,Egypt,1
2002-01-01,Canada,Canada,1
2009-01-01,Canada,Canada,2
2017-01-01,Norway,Norway,2
2017-01-01,South Africa,South Africa,2
2009-01-01,Netherlands,Netherlands,2
1997-01-01,Netherlands,Netherlands,1
2002-01-01,Netherlands,Netherlands,2
2019-01-01,Indonesia,Indonesia,1
2014-01-01,United Kingdom,United Kingdom,10
2019-01-01,United Kingdom,United Kingdom,10
2001-01-01,Sweden,Sweden,1
2016-01-01,Israel,Israel,1
2002-01-01,Israel,Israel,1
2007-01-01,Israel,Israel,1
2010-01-01,Israel,Israel,1
2014-01-01,Australia,Australia,1
2003-01-01,Australia,Australia,1
2006-01-01,Australia,Australia,1
2007-01-01,Australia,Australia,1
2009-01-01,Australia,Australia,1
2019-01-01,Mexico,Mexico,1
2011-01-01,Pakistan,Pakistan,1
2018-01-01,Pakistan,Pakistan,2
2009-01-01,Indonesia,Indonesia,1
2004-01-01,Russia,Russia,3
2017-01-01,Netherlands,Netherlands,1
2014-01-01,Russia/United States,Russia/United States,2
2016-01-01,Peru,Peru,1
2011-01-01,France/Italy,France/Italy,1
2012-01-01,France,France,1
2014-01-01,Ukraine,Ukraine,1
2019-01-01,Italy,Italy,1
2001-01-01,ESA,ESA,1
2009-01-01,ESA,ESA,2
2013-01-01,ESA,ESA,4
2018-01-01,Poland,Poland,1
2019-01-01,Sri Lanka,Sri Lanka,1
2008-01-01,Germany,Germany,4
2011-01-01,Turkey,Turkey,1
2019-01-01,Canada,Canada,3
2005-01-01,Japan,Japan,1
2011-01-01,India/Canada,India/Canada,1
2009-01-01,India,India,1
2017-01-01,France,France,1
2018-01-01,Argentina,Argentina,3
2006-01-01,Germany,Germany,1
2007-01-01,Germany,Germany,3
2013-01-01,India/France,India/France,1
2004-01-01,Saudi Arabia,Saudi Arabia,3
2007-01-01,Saudi Arabia,Saudi Arabia,6
2014-01-01,Saudi Arabia,Saudi Arabia,1
2018-01-01,Saudi Arabia,Saudi Arabia,2
1993-01-01,Brazil,Brazil,1
1998-01-01,Brazil,Brazil,1
2017-01-01,Luxembourg,Luxembourg,3
2016-01-01,Luxembourg,Luxembourg,1
2017-01-01,Brazil,Brazil,2
2006-01-01,China,China,2
2001-01-01,Italy,Italy,1
2009-01-01,Italy,Italy,1
2015-01-01,France/Italy,France/Italy,1
2007-01-01,Sweden,Sweden,1
2015-01-01,Australia,Australia,1
2016-01-01,Australia,Australia,1
1990-01-01,United Kingdom,United Kingdom,1
1999-01-01,United Kingdom,United Kingdom,1
2001-01-01,United Kingdom,United Kingdom,1
2007-01-01,United Kingdom,United Kingdom,2
2006-01-01,Spain,Spain,1
2019-01-01,United States/Sweden,United States/Sweden,1
2018-01-01,Japan/Singapore,Japan/Singapore,1
2009-01-01,France,France,2
2019-01-01,Singapore,Singapore,1
2012-01-01,France/Belgium/Sweden,France/Belgium/Sweden,1
2014-01-01,France/Belgium/Sweden,France/Belgium/Sweden,1
2011-01-01,Chile,Chile,1
2011-01-01,Singapore/Taiwan,Singapore/Taiwan,1
2007-01-01,Brazil,Brazil,1
2008-01-01,Brazil,Brazil,1
2012-01-01,Brazil,Brazil,1
2015-01-01,Brazil,Brazil,1
2016-01-01,Brazil,Brazil,1
2001-01-01,Russia,Russia,2
2019-01-01,Poland,Poland,1
2004-01-01,United States/United Kingdom/Italy,United States/United Kingdom/Italy,1
2009-01-01,Switzerland,Switzerland,1
2005-01-01,France,France,1
2006-01-01,France,France,1
2005-01-01,Indonesia,Indonesia,1
2017-01-01,Indonesia,Indonesia,1
2006-01-01,Thailand,Thailand,1
2014-01-01,Thailand,Thailand,1
2016-01-01,Thailand,Thailand,1
2007-01-01,Multinational,Multinational,3
2008-01-01,Thailand,Thailand,1
1998-01-01,Norway,Norway,1
2008-01-01,Norway,Norway,1
2009-01-01,Norway,Norway,1
2015-01-01,Norway,Norway,1
2003-01-01,United Arab Emirates,United Arab Emirates,1
2008-01-01,United Arab Emirates,United Arab Emirates,1
2014-01-01,Iraq,Iraq,1
2013-01-01,Bolivia,Bolivia,1
2015-01-01,Turkmenistan/Monaco,Turkmenistan/Monaco,1
2008-01-01,Turkey,Turkey,1
2014-01-01,Turkey,Turkey,1
2015-01-01,Turkey,Turkey,1
2013-01-01,Germany,Germany,1
2014-01-01,Singapore,Singapore,1
2008-01-01,Venezuela,Venezuela,1
2017-01-01,Latvia,Latvia,1
2017-01-01,France/Israel,France/Israel,1
2008-01-01,Vietnam,Vietnam,1
2012-01-01,Vietnam,Vietnam,1
2013-01-01,Vietnam,Vietnam,1
2017-01-01,Venezuela,Venezuela,1
2017-01-01,Czech Republic,Czech Republic,1
2011-01-01,Singapore,Singapore,1
1999-01-01,ESA,ESA,1
2005-01-01,Spain,Spain,1
2011-01-01,United Arab Emirates,United Arab Emirates,1
2012-01-01,United Arab Emirates,United Arab Emirates,1
2013-01-01,South Africa,South Africa,1
2018-01-01,South Africa,South Africa,1
2007-01-01,China,China,1
2016-01-01,Argentina,Argentina,2
2017-01-01,Argentina,Argentina,1
