[
	{ "name": "Tame Impala", "follower": 3566496, "popularity": 83, "genre": "australian psych" },
	{ "name": "Chris Stapleton", "follower": 2230712, "popularity": 76, "genre": "contemporary country" },
	{ "name": "The Lumineers", "follower": 3709007, "popularity": 79, "genre": "folk-pop" },
	{ "name": "The Killers", "follower": 5276892, "popularity": 80, "genre": "modern rock" },
	{ "name": "Nick Cave & The Bad Seeds", "follower": 824329, "popularity": 67, "genre": "art rock" },
	{ "name": "Elton John", "follower": 4917064, "popularity": 84, "genre": "glam rock" },
	{ "name": "Aventura", "follower": 3662849, "popularity": 77, "genre": "bachata" },
	{ "name": "Cher", "follower": 1520993, "popularity": 72, "genre": "dance pop" },
	{ "name": "Janet Jackson", "follower": 1962119, "popularity": 69, "genre": "dance pop" },
	{ "name": "The Weeknd", "follower": 20002327, "popularity": 98, "genre": "canadian contemporary r&b" },
	{ "name": "Ana Gabriel", "follower": 1590934, "popularity": 71, "genre": "grupera" },
	{ "name": "Alejandro Fernandez", "follower": 2950557, "popularity": 80, "genre": "grupera" },
	{ "name": "Silvestre Dangond", "follower": 1941598, "popularity": 68, "genre": "colombian pop" },
	{ "name": "CNCO", "follower": 6448671, "popularity": 76, "genre": "boy band" },
	{ "name": "Prince Royce", "follower": 5422019, "popularity": 78, "genre": "bachata" },
	{ "name": "Andr\u00e9s Cepeda", "follower": 1308058, "popularity": 66, "genre": "colombian pop" },
	{ "name": "Kane Brown", "follower": 2395983, "popularity": 80, "genre": "contemporary country" },
	{ "name": "TobyMac", "follower": 814507, "popularity": 69, "genre": "ccm" },
	{ "name": "Harry Styles", "follower": 6817777, "popularity": 89, "genre": "pop" },
	{ "name": "Billie Eilish", "follower": 24257044, "popularity": 95, "genre": "electropop" },
	{ "name": "Alanis Morissette", "follower": 1562798, "popularity": 71, "genre": "alternative rock" },
	{ "name": "Niall Horan", "follower": 5013177, "popularity": 84, "genre": "dance pop" },
	{ "name": "C\u00e9line Dion", "follower": 3560740, "popularity": 78, "genre": "canadian pop" },
	{ "name": "Aerosmith", "follower": 8305064, "popularity": 78, "genre": "album rock" },
	{ "name": "The Who", "follower": 3239689, "popularity": 73, "genre": "album rock" },
	{ "name": "Dua Lipa", "follower": 16345255, "popularity": 95, "genre": "dance pop" },
	{ "name": "Camila Cabello", "follower": 15863836, "popularity": 90, "genre": "dance pop" },
	{ "name": "Foreigner", "follower": 1544984, "popularity": 71, "genre": "album rock" },
	{ "name": "McFly", "follower": 350511, "popularity": 62, "genre": "boy band" },
	{ "name": "The Pussycat Dolls", "follower": 3386819, "popularity": 74, "genre": "dance pop" },
	{ "name": "My Chemical Romance", "follower": 4859111, "popularity": 79, "genre": "emo" },
	{ "name": "Roger Waters", "follower": 939597, "popularity": 57, "genre": "album rock" },
	{ "name": "Enrique Iglesias", "follower": 9267130, "popularity": 79, "genre": "dance pop" },
	{ "name": "M\u00f6tley Cr\u00fce", "follower": 2494572, "popularity": 74, "genre": "glam metal" },
	{ "name": "Backstreet Boys", "follower": 3118631, "popularity": 80, "genre": "boy band" },
	{ "name": "Santana", "follower": 1478682, "popularity": 73, "genre": "blues rock" },
	{ "name": "Maroon 5", "follower": 23731878, "popularity": 89, "genre": "pop" },
	{ "name": "Dave Matthews Band", "follower": 1280227, "popularity": 70, "genre": "jam band" },
	{ "name": "Journey", "follower": 2846086, "popularity": 76, "genre": "album rock" },
	{ "name": "Matchbox Twenty", "follower": 1528886, "popularity": 70, "genre": "neo mellow" },
	{ "name": "Rascal Flatts", "follower": 2311618, "popularity": 74, "genre": "contemporary country" },
	{ "name": "Nickelback", "follower": 4277333, "popularity": 78, "genre": "alternative metal" },
	{ "name": "The Doobie Brothers", "follower": 1166923, "popularity": 71, "genre": "album rock" },
	{ "name": "Incubus", "follower": 2197204, "popularity": 71, "genre": "alternative metal" },
	{ "name": "The Black Crowes", "follower": 408108, "popularity": 63, "genre": "album rock" },
	{ "name": "Breaking Benjamin", "follower": 2871736, "popularity": 75, "genre": "alternative metal" },
	{ "name": "The Black Keys", "follower": 3181248, "popularity": 75, "genre": "alternative rock" },
	{ "name": "Sam Hunt", "follower": 1777965, "popularity": 79, "genre": "contemporary country" },
	{ "name": "Def Leppard", "follower": 2572606, "popularity": 71, "genre": "album rock" },
	{ "name": "Bon Jovi", "follower": 7660084, "popularity": 80, "genre": "glam metal" },
	{ "name": "KISS", "follower": 4520772, "popularity": 74, "genre": "album rock" },
	{ "name": "Dan + Shay", "follower": 1589736, "popularity": 82, "genre": "contemporary country" },
	{ "name": "Poison", "follower": 1932211, "popularity": 66, "genre": "album rock" },
	{ "name": "Alan Jackson", "follower": 1199566, "popularity": 74, "genre": "contemporary country" },
	{ "name": "Marco Antonio Sol\u00eds", "follower": 2584509, "popularity": 76, "genre": "grupera" },
	{ "name": "Vampire Weekend", "follower": 1558225, "popularity": 73, "genre": "baroque pop" },
	{ "name": "Blackberry Smoke", "follower": 176090, "popularity": 57, "genre": "country rock" },
	{ "name": "Tedeschi Trucks Band", "follower": 228784, "popularity": 56, "genre": "blues rock" },
	{ "name": "Boz Scaggs", "follower": 379903, "popularity": 61, "genre": "adult standards" },
	{ "name": "Tootsie Guevara", "follower": 41570, "popularity": 37, "genre": "classic opm" },
	{ "name": "Andr\u00e9 Rieu", "follower": 494843, "popularity": 64, "genre": "easy listening" },
	{ "name": "Jimmy Buffett", "follower": 336300, "popularity": 69, "genre": "country" },
	{ "name": "Luke Combs", "follower": 2645641, "popularity": 84, "genre": "contemporary country" },
	{ "name": "Marc Anthony", "follower": 3923170, "popularity": 79, "genre": "latin" },
	{ "name": "Slipknot", "follower": 5664672, "popularity": 80, "genre": "alternative metal" },
	{ "name": "Chicago", "follower": 1772927, "popularity": 71, "genre": "adult standards" },
	{ "name": "Justin Bieber", "follower": 34293039, "popularity": 95, "genre": "canadian pop" },
	{ "name": "James Taylor", "follower": 1207639, "popularity": 72, "genre": "adult standards" },
	{ "name": "Lauren Daigle", "follower": 1218079, "popularity": 74, "genre": "ccm" },
	{ "name": "Bob Dylan", "follower": 4105148, "popularity": 77, "genre": "album rock" },
	{ "name": "Hillsong Worship", "follower": 2001609, "popularity": 78, "genre": "ccm" },
	{ "name": "Halsey", "follower": 10243142, "popularity": 90, "genre": "dance pop" },
	{ "name": "Daryl Hall & John Oates", "follower": 1139702, "popularity": 74, "genre": "album rock" },
	{ "name": "AJR", "follower": 1208770, "popularity": 77, "genre": "modern rock" },
	{ "name": "Newsboys", "follower": 795861, "popularity": 61, "genre": "ccm" },
	{ "name": "Maze", "follower": 246027, "popularity": 54, "genre": "disco" },
	{ "name": "Judas Priest", "follower": 2008353, "popularity": 69, "genre": "album rock" },
	{ "name": "Slightly Stoopid", "follower": 467697, "popularity": 67, "genre": "reggae fusion" },
	{ "name": "Rebelution", "follower": 573175, "popularity": 68, "genre": "reggae rock" },
	{ "name": "Greensky Bluegrass", "follower": 127040, "popularity": 56, "genre": "banjo" },
	{ "name": "Rick Ross", "follower": 3950804, "popularity": 82, "genre": "dirty south rap" },
	{ "name": "Marshmello", "follower": 22978946, "popularity": 86, "genre": "brostep" },
	{ "name": "Korn", "follower": 3689868, "popularity": 75, "genre": "alternative metal" },
	{ "name": "5 Seconds of Summer", "follower": 6024137, "popularity": 88, "genre": "boy band" },
	{ "name": "NF", "follower": 3388719, "popularity": 85, "genre": "hip hop" },
	{ "name": "Melanie Martinez", "follower": 6350135, "popularity": 80, "genre": "pop" },
	{ "name": "Rod Stewart", "follower": 1988277, "popularity": 75, "genre": "adult standards" },
	{ "name": "The Goo Goo Dolls", "follower": 1580599, "popularity": 72, "genre": "alternative rock" },
	{ "name": "Alicia Keys", "follower": 7428286, "popularity": 82, "genre": "hip pop" },
	{ "name": "Cole Swindell", "follower": 1292887, "popularity": 68, "genre": "contemporary country" },
	{ "name": "Maren Morris", "follower": 460277, "popularity": 78, "genre": "contemporary country" },
	{ "name": "Ozuna", "follower": 22484391, "popularity": 92, "genre": "latin" },
	{ "name": "Yo Gotti", "follower": 2841421, "popularity": 76, "genre": "dirty south rap" },
	{ "name": "Rage Against The Machine", "follower": 3423982, "popularity": 74, "genre": "alternative metal" },
	{ "name": "Foo Fighters", "follower": 7481248, "popularity": 79, "genre": "alternative metal" },
	{ "name": "Five Finger Death Punch", "follower": 3957525, "popularity": 80, "genre": "alternative metal" },
	{ "name": "Celtic Thunder", "follower": 82166, "popularity": 41, "genre": "celtic" },
	{ "name": "Eagles", "follower": 4732736, "popularity": 78, "genre": "album rock" },
	{ "name": "Dead & Company", "follower": 33169, "popularity": 49, "genre": "jam band" },
	{ "name": "The Bouncing Souls", "follower": 130508, "popularity": 54, "genre": "melodic hardcore" },
	{ "name": "Third Eye Blind", "follower": 935668, "popularity": 68, "genre": "alternative rock" },
	{ "name": "Dance Gavin Dance", "follower": 393566, "popularity": 70, "genre": "metalcore" },
	{ "name": "Primus", "follower": 626149, "popularity": 61, "genre": "alternative metal" },
	{ "name": "Whiskey Myers", "follower": 232009, "popularity": 65, "genre": "modern southern rock" },
	{ "name": "Lewis Capaldi", "follower": 3146533, "popularity": 89, "genre": "pop" },
	{ "name": "Milky Chance", "follower": 1294884, "popularity": 74, "genre": "german pop" },
	{ "name": "Bauhaus", "follower": 345676, "popularity": 54, "genre": "alternative rock" },
	{ "name": "The Disco Biscuits", "follower": 54520, "popularity": 39, "genre": "jam band" },
	{ "name": "The Decemberists", "follower": 456451, "popularity": 60, "genre": "alternative rock" },
	{ "name": "Gogol Bordello", "follower": 237691, "popularity": 49, "genre": "gypsy punk" },
	{ "name": "Zeds Dead", "follower": 435086, "popularity": 65, "genre": "bass trap" },
	{ "name": "Bear Grillz", "follower": 105950, "popularity": 50, "genre": "brostep" },
	{ "name": "Beats Antique", "follower": 147537, "popularity": 46, "genre": "belly dance" },
	{ "name": "Billy Strings", "follower": 64810, "popularity": 54, "genre": "jam band" },
	{ "name": "2 Chainz", "follower": 5434350, "popularity": 82, "genre": "atl hip hop" },
	{ "name": "Erykah Badu", "follower": 1752592, "popularity": 68, "genre": "afrofuturism" },
	{ "name": "Master P", "follower": 554392, "popularity": 57, "genre": "dirty south rap" },
	{ "name": "Ozzy Osbourne", "follower": 2815037, "popularity": 78, "genre": "album rock" },
	{ "name": "Reba McEntire", "follower": 1109009, "popularity": 65, "genre": "contemporary country" },
	{ "name": "MercyMe", "follower": 971501, "popularity": 66, "genre": "ccm" },
	{ "name": "Zac Brown Band", "follower": 2078193, "popularity": 76, "genre": "contemporary country" },
	{ "name": "Megadeth", "follower": 2642078, "popularity": 71, "genre": "album rock" },
	{ "name": "Little Big Town", "follower": 1738799, "popularity": 69, "genre": "contemporary country" },
	{ "name": "Disturbed", "follower": 3784783, "popularity": 78, "genre": "alternative metal" },
	{ "name": "for KING & COUNTRY", "follower": 611291, "popularity": 68, "genre": "anthem worship" },
	{ "name": "Deftones", "follower": 1559165, "popularity": 69, "genre": "alternative metal" },
	{ "name": "The Avett Brothers", "follower": 780414, "popularity": 66, "genre": "indie folk" },
	{ "name": "Monsta X", "follower": 2401978, "popularity": 73, "genre": "k-pop" },
	{ "name": "Lynyrd Skynyrd", "follower": 2686863, "popularity": 75, "genre": "album rock" },
	{ "name": "NCT 127", "follower": 2318036, "popularity": 77, "genre": "k-pop" },
	{ "name": "Lindsey Stirling", "follower": 1539042, "popularity": 70, "genre": "bow pop" },
	{ "name": "Lauv", "follower": 2632208, "popularity": 89, "genre": "pop" },
	{ "name": "Louis The Child", "follower": 348201, "popularity": 73, "genre": "edm" },
	{ "name": "Banda Sinaloense MS de Sergio Liz\u00e1rraga", "follower": 8067153, "popularity": 81, "genre": "banda" },
	{ "name": "Jai Wolf", "follower": 194885, "popularity": 64, "genre": "edm" },
	{ "name": "Kayzo", "follower": 124223, "popularity": 63, "genre": "brostep" },
	{ "name": "King Krule", "follower": 481581, "popularity": 67, "genre": "art pop" },
	{ "name": "Bright Eyes", "follower": 419714, "popularity": 63, "genre": "anti-folk" },
	{ "name": "Trippie Redd", "follower": 4516142, "popularity": 88, "genre": "melodic rap" },
	{ "name": "Ratt", "follower": 543995, "popularity": 58, "genre": "album rock" },
	{ "name": "Nightwish", "follower": 1276476, "popularity": 72, "genre": "finnish metal" },
	{ "name": "Burna Boy", "follower": 417610, "popularity": 80, "genre": "afro dancehall" },
	{ "name": "Four Tet", "follower": 425880, "popularity": 69, "genre": "alternative dance" },
	{ "name": "Lennon Stella", "follower": 190454, "popularity": 79, "genre": "canadian pop" },
	{ "name": "Big Thief", "follower": 223723, "popularity": 64, "genre": "art pop" },
	{ "name": "Bunbury", "follower": 1389489, "popularity": 72, "genre": "latin alternative" },
	{ "name": "Joe Russo's Almost Dead", "follower": 8066, "popularity": 34, "genre": "jam band" },
	{ "name": "JSTJR", "follower": 8290, "popularity": 35, "genre": "electronic trap" },
	{ "name": "Ferry Corsten", "follower": 187747, "popularity": 56, "genre": "edm" },
	{ "name": "i_o", "follower": 42067, "popularity": 59, "genre": "bass house" },
	{ "name": "Alabama", "follower": 653436, "popularity": 68, "genre": "country" },
	{ "name": "E-40", "follower": 504644, "popularity": 72, "genre": "cali rap" },
	{ "name": "Los Angeles Azules", "follower": 2949454, "popularity": 78, "genre": "grupera" },
	{ "name": "Guns N' Roses", "follower": 16336396, "popularity": 82, "genre": "glam metal" },
	{ "name": "blink-182", "follower": 5776606, "popularity": 80, "genre": "pop punk" },
	{ "name": "Luke Bryan", "follower": 5189256, "popularity": 79, "genre": "contemporary country" },
	{ "name": "Khalid", "follower": 11172232, "popularity": 93, "genre": "alternative r&b" },
	{ "name": "Sugarland", "follower": 1173409, "popularity": 63, "genre": "contemporary country" },
	{ "name": "Green Day", "follower": 10446571, "popularity": 83, "genre": "modern rock" },
	{ "name": "Widespread Panic", "follower": 169175, "popularity": 57, "genre": "blues rock" },
	{ "name": "Louis Tomlinson", "follower": 3083626, "popularity": 74, "genre": "dance pop" },
	{ "name": "Steely Dan", "follower": 1049931, "popularity": 70, "genre": "album rock" },
	{ "name": "Shinedown", "follower": 2425235, "popularity": 75, "genre": "alternative metal" },
	{ "name": "Jhen\u00e9 Aiko", "follower": 3071219, "popularity": 84, "genre": "alternative r&b" },
	{ "name": "David Gray", "follower": 421195, "popularity": 64, "genre": "acoustic pop" },
	{ "name": "The Monkees", "follower": 623296, "popularity": 66, "genre": "brill building pop" },
	{ "name": "Coheed and Cambria", "follower": 444686, "popularity": 63, "genre": "alternative metal" },
	{ "name": "David Foster", "follower": 47071, "popularity": 54, "genre": "soft rock" },
	{ "name": "Lake Street Dive", "follower": 270509, "popularity": 64, "genre": "boston rock" },
	{ "name": "Colin Hay", "follower": 65442, "popularity": 50, "genre": "neo mellow" },
	{ "name": "Adam Ant", "follower": 143953, "popularity": 45, "genre": "dance rock" },
	{ "name": "David Bisbal", "follower": 2517055, "popularity": 75, "genre": "latin" },
	{ "name": "Wardruna", "follower": 277412, "popularity": 60, "genre": "medieval folk" },
	{ "name": "SLANDER", "follower": 202510, "popularity": 71, "genre": "brostep" },
	{ "name": "NGHTMRE", "follower": 365649, "popularity": 69, "genre": "bass trap" },
	{ "name": "Ministry", "follower": 275390, "popularity": 54, "genre": "alternative metal" },
	{ "name": "Brittany Howard", "follower": 92532, "popularity": 57, "genre": "modern blues rock" },
	{ "name": "Neck Deep", "follower": 451719, "popularity": 66, "genre": "pop punk" },
	{ "name": "The Front Bottoms", "follower": 337472, "popularity": 63, "genre": "alternative emo" },
	{ "name": "Ricardo Montaner", "follower": 2628882, "popularity": 73, "genre": "grupera" },
	{ "name": "Parkway Drive", "follower": 700111, "popularity": 68, "genre": "alternative metal" },
	{ "name": "Carlos Rivera", "follower": 1530181, "popularity": 78, "genre": "latin" },
	{ "name": "Alex Campos", "follower": 725220, "popularity": 65, "genre": "latin christian" },
	{ "name": "Tycho", "follower": 555558, "popularity": 66, "genre": "chillwave" },
	{ "name": "Kash Doll", "follower": 475209, "popularity": 65, "genre": "deep pop r&b" },
	{ "name": "Tenacious D", "follower": 1097295, "popularity": 66, "genre": "alternative metal" },
	{ "name": "Hayley Williams", "follower": 161443, "popularity": 70, "genre": "pop" },
	{ "name": "Crowder", "follower": 216165, "popularity": 62, "genre": "anthem worship" },
	{ "name": "Asking Alexandria", "follower": 1354806, "popularity": 70, "genre": "metalcore" },
	{ "name": "Bayside", "follower": 152015, "popularity": 56, "genre": "alternative emo" },
	{ "name": "KALEO", "follower": 926035, "popularity": 72, "genre": "icelandic indie" },
	{ "name": "EDEN", "follower": 775720, "popularity": 74, "genre": "indie poptimism" },
	{ "name": "Melendi", "follower": 2135694, "popularity": 74, "genre": "latin pop" },
	{ "name": "James Arthur", "follower": 5791022, "popularity": 84, "genre": "pop" },
	{ "name": "Blues Traveler", "follower": 347490, "popularity": 58, "genre": "alternative rock" },
	{ "name": "Slaughter", "follower": 302129, "popularity": 49, "genre": "album rock" },
	{ "name": "New Found Glory", "follower": 563767, "popularity": 63, "genre": "easycore" },
	{ "name": "Brent Faiyaz", "follower": 586337, "popularity": 77, "genre": "alternative r&b" },
	{ "name": "Jonny Lang", "follower": 162670, "popularity": 49, "genre": "blues" },
	{ "name": "Hombres G", "follower": 1909344, "popularity": 72, "genre": "latin" },
	{ "name": "Yung Pinch", "follower": 359761, "popularity": 70, "genre": "emo rap" },
	{ "name": "The Cult", "follower": 337029, "popularity": 61, "genre": "album rock" },
	{ "name": "Tove Lo", "follower": 2373617, "popularity": 79, "genre": "dance pop" },
	{ "name": "STARSET", "follower": 517685, "popularity": 68, "genre": "alternative metal" },
	{ "name": "Rezz", "follower": 235460, "popularity": 61, "genre": "brostep" },
	{ "name": "Lane 8", "follower": 171479, "popularity": 69, "genre": "gauze pop" },
	{ "name": "Kaskade", "follower": 767917, "popularity": 72, "genre": "big room" },
	{ "name": "Nora En Pure", "follower": 195887, "popularity": 66, "genre": "deep house" },
	{ "name": "Chris Lake", "follower": 153182, "popularity": 67, "genre": "bass house" },
	{ "name": "Kraftwerk", "follower": 432895, "popularity": 57, "genre": "art rock" },
	{ "name": "TOOL", "follower": 1311577, "popularity": 75, "genre": "alternative metal" },
	{ "name": "Cody Johnson", "follower": 294132, "popularity": 70, "genre": "contemporary country" },
	{ "name": "Little River Band", "follower": 542020, "popularity": 60, "genre": "album rock" },
	{ "name": "Kool & The Gang", "follower": 1283854, "popularity": 68, "genre": "disco" },
	{ "name": "Maxwell", "follower": 986249, "popularity": 61, "genre": "dance pop" },
	{ "name": "Buddy Guy", "follower": 560688, "popularity": 57, "genre": "blues" },
	{ "name": "Gregory Porter", "follower": 373103, "popularity": 65, "genre": "contemporary vocal jazz" },
	{ "name": "Brian McKnight", "follower": 835470, "popularity": 64, "genre": "dance pop" },
	{ "name": "Grand Funk Railroad", "follower": 509009, "popularity": 57, "genre": "album rock" },
	{ "name": "Bernadette Peters", "follower": 31224, "popularity": 42, "genre": "broadway" },
	{ "name": "Judy Collins", "follower": 124747, "popularity": 52, "genre": "american folk revival" },
	{ "name": "Christopher Cross", "follower": 443839, "popularity": 66, "genre": "adult standards" },
	{ "name": "Nashville Symphony Orchestra", "follower": 755, "popularity": 35, "genre": "brazilian composition" },
	{ "name": "Celtic Woman", "follower": 307971, "popularity": 61, "genre": "celtic" },
	{ "name": "Jason Isbell and the 400 Unit", "follower": 114805, "popularity": 62, "genre": "alternative country" },
	{ "name": "Foals", "follower": 1029263, "popularity": 70, "genre": "garage rock" },
	{ "name": "AWOLNATION", "follower": 1677468, "popularity": 68, "genre": "la indie" },
	{ "name": "Jimmy Eat World", "follower": 993160, "popularity": 69, "genre": "emo" },
	{ "name": "Snoh Aalegra", "follower": 328105, "popularity": 71, "genre": "alternative r&b" },
	{ "name": "Hippie Sabotage", "follower": 477119, "popularity": 75, "genre": "edm" },
	{ "name": "R\u00dcF\u00dcS DU SOL", "follower": 575836, "popularity": 72, "genre": "australian electropop" },
	{ "name": "Tim McGraw", "follower": 3086159, "popularity": 75, "genre": "contemporary country" },
	{ "name": "Brett Young", "follower": 509573, "popularity": 75, "genre": "contemporary country" },
	{ "name": "Tech N9ne", "follower": 1573076, "popularity": 74, "genre": "hip hop" },
	{ "name": "Dillon Francis", "follower": 978547, "popularity": 70, "genre": "big room" },
	{ "name": "Juanes", "follower": 2775000, "popularity": 79, "genre": "colombian pop" },
	{ "name": "Lindsey Buckingham", "follower": 66255, "popularity": 51, "genre": "album rock" },
	{ "name": "Aaron Watson", "follower": 158135, "popularity": 58, "genre": "contemporary country" },
	{ "name": "Ween", "follower": 230561, "popularity": 61, "genre": "alternative rock" },
	{ "name": "Steve Miller Band", "follower": 1507807, "popularity": 70, "genre": "album rock" },
	{ "name": "Iration", "follower": 263052, "popularity": 62, "genre": "jawaiian" },
	{ "name": "The National", "follower": 1173649, "popularity": 70, "genre": "chamber pop" },
	{ "name": "Barenaked Ladies", "follower": 443303, "popularity": 64, "genre": "canadian pop" },
	{ "name": "Trey Anastasio", "follower": 65031, "popularity": 47, "genre": "jam band" },
	{ "name": "Above & Beyond", "follower": 578650, "popularity": 70, "genre": "edm" },
	{ "name": "ZZ Top", "follower": 2408465, "popularity": 72, "genre": "album rock" },
	{ "name": "Riley Green", "follower": 139446, "popularity": 70, "genre": "contemporary country" },
	{ "name": "Old Dominion", "follower": 741195, "popularity": 74, "genre": "contemporary country" },
	{ "name": "Patti LaBelle", "follower": 502524, "popularity": 55, "genre": "disco" },
	{ "name": "lovelytheband", "follower": 222299, "popularity": 65, "genre": "indie pop" },
	{ "name": "The Growlers", "follower": 409256, "popularity": 67, "genre": "garage rock" },
	{ "name": "Silverstein", "follower": 433888, "popularity": 66, "genre": "canadian post-hardcore" },
	{ "name": "They Might Be Giants", "follower": 224074, "popularity": 60, "genre": "comic" },
	{ "name": "John Hiatt", "follower": 111780, "popularity": 55, "genre": "alternative country" },
	{ "name": "STRFKR", "follower": 294141, "popularity": 64, "genre": "alternative dance" },
	{ "name": "Pop Evil", "follower": 341328, "popularity": 62, "genre": "alternative metal" },
	{ "name": "Moonshine Bandits", "follower": 151917, "popularity": 55, "genre": "country rap" },
	{ "name": "Keb' Mo'", "follower": 188025, "popularity": 55, "genre": "blues" },
	{ "name": "Durand Jones & The Indications", "follower": 92829, "popularity": 56, "genre": "funk" },
	{ "name": "Tyler Farr", "follower": 501629, "popularity": 59, "genre": "contemporary country" },
	{ "name": "Joe Nichols", "follower": 490849, "popularity": 61, "genre": "arkansas country" },
	{ "name": "Kevin Gates", "follower": 3147645, "popularity": 79, "genre": "baton rouge rap" },
	{ "name": "The 1975", "follower": 3945349, "popularity": 81, "genre": "indie pop" },
	{ "name": "blackbear", "follower": 3015896, "popularity": 86, "genre": "pop" },
	{ "name": "Jagged Edge", "follower": 1182646, "popularity": 66, "genre": "atl hip hop" },
	{ "name": "John Legend", "follower": 4953626, "popularity": 82, "genre": "neo mellow" },
	{ "name": "Omarion", "follower": 1689519, "popularity": 67, "genre": "dance pop" },
	{ "name": "Dennis DeYoung", "follower": 6845, "popularity": 33, "genre": "album rock" },
	{ "name": "New Order", "follower": 1149965, "popularity": 70, "genre": "art rock" },
	{ "name": "Pet Shop Boys", "follower": 957499, "popularity": 70, "genre": "art pop" },
	{ "name": "Andrea Bocelli", "follower": 1420172, "popularity": 73, "genre": "classical tenor" },
	{ "name": "Alice Cooper", "follower": 1933917, "popularity": 66, "genre": "album rock" },
	{ "name": "Stick Figure", "follower": 262381, "popularity": 67, "genre": "reggae fusion" },
	{ "name": "The Revivalists", "follower": 239900, "popularity": 62, "genre": "indie folk" },
	{ "name": "King Crimson", "follower": 461744, "popularity": 59, "genre": "album rock" },
	{ "name": "Russ", "follower": 3282448, "popularity": 83, "genre": "hawaiian hip hop" },
	{ "name": "Norah Jones", "follower": 2149641, "popularity": 75, "genre": "adult standards" },
	{ "name": "YoungBoy Never Broke Again", "follower": 4516473, "popularity": 87, "genre": "baton rouge rap" },
	{ "name": "Umphrey's McGee", "follower": 142105, "popularity": 52, "genre": "jam band" },
	{ "name": "Lady Antebellum", "follower": 2897890, "popularity": 73, "genre": "contemporary country" },
	{ "name": "Maggie Rogers", "follower": 587817, "popularity": 72, "genre": "electropop" },
	{ "name": "Die Antwoord", "follower": 1325313, "popularity": 66, "genre": "african rock" },
	{ "name": "Xavier Wulf", "follower": 257100, "popularity": 65, "genre": "dark trap" },
	{ "name": "Brian Fallon", "follower": 67001, "popularity": 57, "genre": "heartland rock" },
	{ "name": "Jamey Johnson", "follower": 316074, "popularity": 63, "genre": "contemporary country" },
	{ "name": "JJ Grey & Mofro", "follower": 98421, "popularity": 52, "genre": "blues rock" },
	{ "name": "Sir Charles Jones", "follower": 64809, "popularity": 45, "genre": "southern soul" },
	{ "name": "Earth, Wind & Fire", "follower": 2296818, "popularity": 75, "genre": "disco" },
	{ "name": "The Beach Boys", "follower": 2510192, "popularity": 75, "genre": "baroque pop" },
	{ "name": "Billy Idol", "follower": 910041, "popularity": 70, "genre": "album rock" },
	{ "name": "Joan Jett & The Blackhearts", "follower": 388653, "popularity": 65, "genre": "glam punk" },
	{ "name": "Insane Clown Posse", "follower": 371424, "popularity": 60, "genre": "comic" },
	{ "name": "Purity Ring", "follower": 500277, "popularity": 65, "genre": "art pop" },
	{ "name": "Sleeping With Sirens", "follower": 1661139, "popularity": 68, "genre": "metalcore" },
	{ "name": "We Came As Romans", "follower": 526923, "popularity": 60, "genre": "christian rock" },
	{ "name": "YUNGBLUD", "follower": 801939, "popularity": 76, "genre": "british indie rock" },
	{ "name": "John Mark McMillan", "follower": 119934, "popularity": 56, "genre": "acoustic pop" },
	{ "name": "Fit For A King", "follower": 175620, "popularity": 59, "genre": "christian rock" },
	{ "name": "Drive-By Truckers", "follower": 130366, "popularity": 55, "genre": "alternative country" },
	{ "name": "Tegan and Sara", "follower": 493333, "popularity": 61, "genre": "canadian indie" },
	{ "name": "Thomas Rhett", "follower": 3320568, "popularity": 79, "genre": "contemporary country" },
	{ "name": "Brad Paisley", "follower": 1733018, "popularity": 70, "genre": "contemporary country" },
	{ "name": "Wallows", "follower": 678896, "popularity": 74, "genre": "indie pop" },
	{ "name": "Barns Courtney", "follower": 292144, "popularity": 66, "genre": "modern alternative rock" },
	{ "name": "Watsky", "follower": 305684, "popularity": 62, "genre": "abstract hip hop" },
	{ "name": "Royal Blood", "follower": 974322, "popularity": 66, "genre": "brighton indie" },
	{ "name": "Circa Survive", "follower": 236798, "popularity": 56, "genre": "dreamo" },
	{ "name": "The Floozies", "follower": 57489, "popularity": 49, "genre": "jam band" },
	{ "name": "Billy Joel", "follower": 2543595, "popularity": 79, "genre": "album rock" },
	{ "name": "Local Natives", "follower": 488731, "popularity": 66, "genre": "chamber pop" },
	{ "name": "Scott Bradlee's Postmodern Jukebox", "follower": 716784, "popularity": 66, "genre": "swing" },
	{ "name": "Brian Culbertson", "follower": 78226, "popularity": 51, "genre": "smooth jazz" },
	{ "name": "Atlanta Symphony Orchestra", "follower": 1688, "popularity": 25, "genre": "orchestra" },
	{ "name": "Amos Lee", "follower": 336932, "popularity": 62, "genre": "acoustic pop" },
	{ "name": "Ben Folds", "follower": 211009, "popularity": 56, "genre": "indie pop" },
	{ "name": "Stewart Copeland", "follower": 6657, "popularity": 22, "genre": "rock drums" },
	{ "name": "Jazz At Lincoln Center Orchestra", "follower": 19695, "popularity": 47, "genre": "big band" },
	{ "name": "Chris Botti", "follower": 97569, "popularity": 57, "genre": "adult standards" },
	{ "name": "The Pretty Reckless", "follower": 871942, "popularity": 62, "genre": "candy pop" },
	{ "name": "The HU", "follower": 245670, "popularity": 60, "genre": "oriental metal" },
	{ "name": "Dread Mar I", "follower": 1708818, "popularity": 71, "genre": "argentine reggae" },
	{ "name": "girl in red", "follower": 789454, "popularity": 74, "genre": "bedroom pop" },
	{ "name": "Apocalyptica", "follower": 614880, "popularity": 63, "genre": "alternative metal" },
	{ "name": "The All-American Rejects", "follower": 1787556, "popularity": 70, "genre": "modern rock" },
	{ "name": "SCANDAL", "follower": 176335, "popularity": 55, "genre": "idol rock" },
	{ "name": "Angels & Airwaves", "follower": 436868, "popularity": 61, "genre": "emo" },
	{ "name": "Stereolab", "follower": 147008, "popularity": 55, "genre": "alternative rock" },
	{ "name": "Amorphis", "follower": 187511, "popularity": 54, "genre": "finnish death metal" },
	{ "name": "Monster Magnet", "follower": 134233, "popularity": 50, "genre": "alternative metal" },
	{ "name": "HammerFall", "follower": 377813, "popularity": 59, "genre": "gothenburg metal" },
	{ "name": "Collective Soul", "follower": 602179, "popularity": 62, "genre": "alternative metal" },
	{ "name": "Anthony Hamilton", "follower": 949862, "popularity": 63, "genre": "neo soul" },
	{ "name": "Wilco", "follower": 519909, "popularity": 65, "genre": "alternative country" },
	{ "name": "Big Boi", "follower": 276820, "popularity": 61, "genre": "atl hip hop" },
	{ "name": "India.Arie", "follower": 570081, "popularity": 60, "genre": "neo soul" },
	{ "name": "Phish", "follower": 326168, "popularity": 63, "genre": "blues rock" },
	{ "name": "Lady Gaga", "follower": 11248550, "popularity": 88, "genre": "dance pop" },
	{ "name": "Bruno Mars", "follower": 24789685, "popularity": 88, "genre": "pop" },
	{ "name": "Styx", "follower": 947250, "popularity": 65, "genre": "album rock" },
	{ "name": "Air Supply", "follower": 1651042, "popularity": 71, "genre": "adult standards" },
	{ "name": "Bone Thugs-N-Harmony", "follower": 1458888, "popularity": 67, "genre": "gangster rap" },
	{ "name": "Home Free", "follower": 171676, "popularity": 58, "genre": "a cappella" },
	{ "name": "Lee Brice", "follower": 1226460, "popularity": 73, "genre": "contemporary country" },
	{ "name": "Thom Yorke", "follower": 533568, "popularity": 63, "genre": "art pop" },
	{ "name": "DMA'S", "follower": 150289, "popularity": 63, "genre": "australian indie" },
	{ "name": "Crowded House", "follower": 476310, "popularity": 68, "genre": "australian rock" },
	{ "name": "The Streets", "follower": 302395, "popularity": 61, "genre": "birmingham hip hop" },
	{ "name": "Kaiser Chiefs", "follower": 931306, "popularity": 63, "genre": "alternative rock" },
	{ "name": "Paul Heaton", "follower": 28247, "popularity": 46, "genre": "british alternative rock" },
	{ "name": "Squirrel Nut Zippers", "follower": 58260, "popularity": 44, "genre": "swing" },
	{ "name": "Uncle Acid & The Deadbeats", "follower": 111507, "popularity": 48, "genre": "doom metal" },
	{ "name": "Buckcherry", "follower": 426480, "popularity": 59, "genre": "alternative metal" },
	{ "name": "Shoreline Mafia", "follower": 581261, "popularity": 74, "genre": "cali rap" },
	{ "name": "JoJo", "follower": 1557131, "popularity": 67, "genre": "dance pop" },
	{ "name": "Reel Big Fish", "follower": 328699, "popularity": 58, "genre": "modern ska punk" },
	{ "name": "Robert Earl Keen", "follower": 106536, "popularity": 53, "genre": "country rock" },
	{ "name": "Sheryl Crow", "follower": 618132, "popularity": 68, "genre": "folk" },
	{ "name": "Koe Wetzel", "follower": 106487, "popularity": 66, "genre": "texas country" },
	{ "name": "Willie Nelson", "follower": 1089273, "popularity": 74, "genre": "classic country pop" },
	{ "name": "Billy Currington", "follower": 1693723, "popularity": 70, "genre": "contemporary country" },
	{ "name": "Steel Panther", "follower": 335615, "popularity": 58, "genre": "comic" },
	{ "name": "Palaye Royale", "follower": 189642, "popularity": 63, "genre": "modern alternative rock" },
	{ "name": "Against Me!", "follower": 199432, "popularity": 57, "genre": "folk punk" },
	{ "name": "Blue October", "follower": 273893, "popularity": 60, "genre": "alternative metal" },
	{ "name": "Kolohe Kai", "follower": 159430, "popularity": 59, "genre": "jawaiian" },
	{ "name": "Excision", "follower": 511991, "popularity": 66, "genre": "brostep" },
	{ "name": "Melissa Etheridge", "follower": 250258, "popularity": 56, "genre": "folk" },
	{ "name": "George Thorogood & The Destroyers", "follower": 465917, "popularity": 60, "genre": "album rock" },
	{ "name": "Dokken", "follower": 353262, "popularity": 55, "genre": "album rock" },
	{ "name": "Kenny G", "follower": 594785, "popularity": 67, "genre": "smooth jazz" },
	{ "name": "Glenn Miller Orchestra", "follower": 69475, "popularity": 41, "genre": "adult standards" },
	{ "name": "LeAnn Rimes", "follower": 712190, "popularity": 64, "genre": "country" },
	{ "name": "Countess Luann", "follower": 2506, "popularity": 25, "genre": "strut" },
	{ "name": "Gary Allan", "follower": 663094, "popularity": 61, "genre": "contemporary country" },
	{ "name": "Pitbull", "follower": 7677227, "popularity": 84, "genre": "dance pop" },
	{ "name": "Johnny Mathis", "follower": 209214, "popularity": 57, "genre": "adult standards" },
	{ "name": "Chaka Khan", "follower": 892457, "popularity": 67, "genre": "dance pop" },
	{ "name": "Tower Of Power", "follower": 181526, "popularity": 53, "genre": "funk" },
	{ "name": "Bell Biv DeVoe", "follower": 575264, "popularity": 56, "genre": "boy band" },
	{ "name": "The Go-Go's", "follower": 350645, "popularity": 55, "genre": "album rock" },
	{ "name": "Bikini Kill", "follower": 155786, "popularity": 48, "genre": "olympia wa indie" },
	{ "name": "King Gizzard & The Lizard Wizard", "follower": 476310, "popularity": 66, "genre": "australian indie" },
	{ "name": "City and Colour", "follower": 711730, "popularity": 64, "genre": "canadian folk" },
	{ "name": "MIKA", "follower": 985545, "popularity": 69, "genre": "dance pop" },
	{ "name": "Ski Mask The Slump God", "follower": 3180665, "popularity": 79, "genre": "miami hip hop" },
	{ "name": "Car Seat Headrest", "follower": 243876, "popularity": 63, "genre": "alternative rock" },
	{ "name": "Nikki Glaser", "follower": 6086, "popularity": 30, "genre": "comedienne" },
	{ "name": "Amaranthe", "follower": 324908, "popularity": 66, "genre": "gothic symphonic metal" },
	{ "name": "Krokus", "follower": 152087, "popularity": 49, "genre": "album rock" },
	{ "name": "Ty Segall", "follower": 229716, "popularity": 57, "genre": "alternative rock" },
	{ "name": "In This Moment", "follower": 818126, "popularity": 68, "genre": "alternative metal" },
	{ "name": "Beth Hart", "follower": 215122, "popularity": 58, "genre": "blues rock" },
	{ "name": "Michael Franti & Spearhead", "follower": 134497, "popularity": 57, "genre": "reggae fusion" },
	{ "name": "Echo & the Bunnymen", "follower": 468094, "popularity": 60, "genre": "alternative rock" },
	{ "name": "Hot Chip", "follower": 521322, "popularity": 63, "genre": "alternative dance" },
	{ "name": "Lupe Fiasco", "follower": 1358033, "popularity": 69, "genre": "chicago rap" },
	{ "name": "COIN", "follower": 276267, "popularity": 69, "genre": "indie pop" },
	{ "name": "Nathaniel Rateliff & The Night Sweats", "follower": 402464, "popularity": 64, "genre": "funk" },
	{ "name": "Alter Bridge", "follower": 722233, "popularity": 66, "genre": "alternative metal" },
	{ "name": "LP", "follower": 1577597, "popularity": 72, "genre": "la pop" },
	{ "name": "Chris Janson", "follower": 178784, "popularity": 65, "genre": "contemporary country" },
	{ "name": "Pigeons Playing Ping Pong", "follower": 71033, "popularity": 51, "genre": "jam band" },
	{ "name": "Vida Blue", "follower": 4320, "popularity": 25, "genre": "jam band" },
	{ "name": "Shania Twain", "follower": 1889582, "popularity": 73, "genre": "canadian country" },
	{ "name": "Hollywood Undead", "follower": 1634350, "popularity": 74, "genre": "alternative metal" },
	{ "name": "G Herbo", "follower": 846902, "popularity": 76, "genre": "chicago drill" },
	{ "name": "Aterciopelados", "follower": 439761, "popularity": 59, "genre": "colombian rock" },
	{ "name": "Stormzy", "follower": 1587173, "popularity": 80, "genre": "grime" },
	{ "name": "Fetty Wap", "follower": 3715323, "popularity": 76, "genre": "new jersey rap" },
	{ "name": "Boney James", "follower": 93990, "popularity": 54, "genre": "smooth jazz" },
	{ "name": "She Past Away", "follower": 62425, "popularity": 46, "genre": "dark post-punk" },
	{ "name": "Fruition", "follower": 27058, "popularity": 47, "genre": "deep new americana" },
	{ "name": "Mark Farina", "follower": 32385, "popularity": 41, "genre": "chicago house" },
	{ "name": "The Menzingers", "follower": 115153, "popularity": 57, "genre": "alternative emo" },
	{ "name": "Built To Spill", "follower": 177782, "popularity": 54, "genre": "alternative pop" },
	{ "name": "RJD2", "follower": 287518, "popularity": 57, "genre": "big beat" },
	{ "name": "Murs", "follower": 108539, "popularity": 51, "genre": "abstract hip hop" },
	{ "name": "Grieves", "follower": 102205, "popularity": 51, "genre": "abstract hip hop" },
	{ "name": "Gondwana", "follower": 779869, "popularity": 64, "genre": "latin alternative" },
	{ "name": "Weyes Blood", "follower": 116953, "popularity": 60, "genre": "art pop" },
	{ "name": "Natiruts", "follower": 2369570, "popularity": 71, "genre": "brazilian reggae" },
	{ "name": "gianni & kyle", "follower": 137194, "popularity": 70, "genre": "pop rap" },
	{ "name": "Manic Focus", "follower": 37022, "popularity": 46, "genre": "livetronica" },
	{ "name": "Jason Isbell", "follower": 235111, "popularity": 59, "genre": "alternative country" },
	{ "name": "Trevor Hall", "follower": 225238, "popularity": 63, "genre": "acoustic pop" },
	{ "name": "Walk Off the Earth", "follower": 470537, "popularity": 64, "genre": "canadian rock" },
	{ "name": "The Wonder Years", "follower": 203915, "popularity": 57, "genre": "alternative emo" },
	{ "name": "Clannad", "follower": 95665, "popularity": 54, "genre": "celtic" },
	{ "name": "Of Monsters and Men", "follower": 2879949, "popularity": 72, "genre": "folk-pop" },
	{ "name": "Bruno Major", "follower": 331451, "popularity": 69, "genre": "indie r&b" },
	{ "name": "Shooting Star", "follower": 7720, "popularity": 29, "genre": "album rock" },
	{ "name": "Casting Crowns", "follower": 1110862, "popularity": 68, "genre": "ccm" },
	{ "name": "The Charlie Daniels Band", "follower": 353350, "popularity": 62, "genre": "classic rock" },
	{ "name": "Chicano Batman", "follower": 127395, "popularity": 55, "genre": "la indie" },
	{ "name": "Cypress Hill", "follower": 1145294, "popularity": 69, "genre": "chicano rap" },
	{ "name": "American Aquarium", "follower": 33500, "popularity": 47, "genre": "alternative country" },
	{ "name": "10 Years", "follower": 391238, "popularity": 58, "genre": "alternative metal" },
	{ "name": "Carnifex", "follower": 149191, "popularity": 46, "genre": "deathcore" },
	{ "name": "Orville Peck", "follower": 91862, "popularity": 60, "genre": "alternative country" },
	{ "name": "Sting", "follower": 1734236, "popularity": 73, "genre": "permanent wave" },
	{ "name": "The Temptations", "follower": 1653274, "popularity": 71, "genre": "adult standards" },
	{ "name": "Morgan Wallen", "follower": 485122, "popularity": 80, "genre": "contemporary country" },
	{ "name": "KAYTRANADA", "follower": 645611, "popularity": 73, "genre": "escape room" },
	{ "name": "The Glitch Mob", "follower": 483654, "popularity": 65, "genre": "edm" },
	{ "name": "Boris Brejcha", "follower": 530272, "popularity": 66, "genre": "german house" },
	{ "name": "Bonnie Raitt", "follower": 356464, "popularity": 63, "genre": "classic rock" },
	{ "name": "Marisela", "follower": 773167, "popularity": 64, "genre": "grupera" },
	{ "name": "Gladys Knight & The Pips", "follower": 610428, "popularity": 63, "genre": "brill building pop" },
	{ "name": "Lord Huron", "follower": 667938, "popularity": 73, "genre": "indie folk" },
	{ "name": "Eli Young Band", "follower": 564628, "popularity": 66, "genre": "contemporary country" },
	{ "name": "Joe Bonamassa", "follower": 555553, "popularity": 62, "genre": "blues rock" },
	{ "name": "Ravi Shankar", "follower": 276873, "popularity": 49, "genre": "hindustani classical" },
	{ "name": "Mariachi Sol De Mexico De Jose Hernandez", "follower": 7823, "popularity": 36, "genre": "mariachi" },
	{ "name": "98\u00ba", "follower": 251574, "popularity": 60, "genre": "boy band" },
	{ "name": "Jesse & Joy", "follower": 3524915, "popularity": 77, "genre": "latin" },
	{ "name": "America", "follower": 863356, "popularity": 70, "genre": "album rock" },
	{ "name": "Billy Ray Cyrus", "follower": 156745, "popularity": 75, "genre": "country" },
	{ "name": "Daughtry", "follower": 1361618, "popularity": 68, "genre": "alternative metal" },
	{ "name": "Josh Turner", "follower": 1695079, "popularity": 68, "genre": "contemporary country" },
	{ "name": "Trace Adkins", "follower": 1465919, "popularity": 66, "genre": "contemporary country" },
	{ "name": "Tracy Lawrence", "follower": 539806, "popularity": 62, "genre": "arkansas country" },
	{ "name": "38 Special", "follower": 594725, "popularity": 60, "genre": "album rock" },
	{ "name": "Neil Sedaka", "follower": 248807, "popularity": 59, "genre": "adult standards" },
	{ "name": "John Michael Montgomery", "follower": 549497, "popularity": 63, "genre": "contemporary country" },
	{ "name": "Citizen Cope", "follower": 261794, "popularity": 59, "genre": "neo mellow" },
	{ "name": "Kronos Quartet", "follower": 72149, "popularity": 54, "genre": "avant-garde" },
	{ "name": "Josh Garrels", "follower": 167594, "popularity": 59, "genre": "acoustic pop" },
	{ "name": "The Beatles", "follower": 15888307, "popularity": 89, "genre": "british invasion" },
	{ "name": "Graham Nash", "follower": 123273, "popularity": 52, "genre": "country rock" },
	{ "name": "Ashley McBryde", "follower": 64177, "popularity": 62, "genre": "arkansas country" },
	{ "name": "The Dead South", "follower": 305319, "popularity": 61, "genre": "saskatchewan indie" },
	{ "name": "Band of Horses", "follower": 795413, "popularity": 64, "genre": "chamber pop" },
	{ "name": "Black Label Society", "follower": 893140, "popularity": 61, "genre": "album rock" },
	{ "name": "The Head and the Heart", "follower": 803123, "popularity": 71, "genre": "folk-pop" },
	{ "name": "The Allman Betts Band", "follower": 5532, "popularity": 31, "genre": "southern rock" },
	{ "name": "Toad The Wet Sprocket", "follower": 183509, "popularity": 53, "genre": "alternative rock" },
	{ "name": "Houndmouth", "follower": 177148, "popularity": 61, "genre": "deep new americana" },
	{ "name": "Victor Wooten", "follower": 123462, "popularity": 46, "genre": "electric bass" },
	{ "name": "The Steeldrivers", "follower": 150520, "popularity": 60, "genre": "bluegrass" },
	{ "name": "Kesha", "follower": 5425403, "popularity": 81, "genre": "dance pop" },
	{ "name": "The Hunna", "follower": 183335, "popularity": 61, "genre": "english indie rock" },
	{ "name": "I Prevail", "follower": 612884, "popularity": 73, "genre": "nu-metalcore" },
	{ "name": "Thundercat", "follower": 467999, "popularity": 73, "genre": "afrofuturism" },
	{ "name": "Our Hollow, Our Home", "follower": 44031, "popularity": 45, "genre": "melodic hardcore" },
	{ "name": "Stiff Little Fingers", "follower": 120860, "popularity": 48, "genre": "oi" },
	{ "name": "The Chats", "follower": 92473, "popularity": 58, "genre": "australian garage punk" },
	{ "name": "Twisted Wheel", "follower": 13211, "popularity": 37, "genre": "british indie rock" },
	{ "name": "Bad Religion", "follower": 830512, "popularity": 65, "genre": "punk" },
	{ "name": "Larkins", "follower": 14763, "popularity": 45, "genre": "english indie rock" },
	{ "name": "Morgan Heritage", "follower": 139575, "popularity": 52, "genre": "dancehall" },
	{ "name": "Helloween", "follower": 673943, "popularity": 61, "genre": "german metal" },
	{ "name": "M Huncho", "follower": 176456, "popularity": 70, "genre": "uk hip hop" },
	{ "name": "Sarah Brightman", "follower": 290403, "popularity": 61, "genre": "operatic pop" },
	{ "name": "The Hollies", "follower": 638773, "popularity": 65, "genre": "adult standards" },
	{ "name": "Julio Iglesias", "follower": 1096089, "popularity": 70, "genre": "latin" },
	{ "name": "Frankie Valli & The Four Seasons", "follower": 349437, "popularity": 66, "genre": "adult standards" },
	{ "name": "Goldfinger", "follower": 253644, "popularity": 60, "genre": "pop punk" },
	{ "name": "The Garden", "follower": 90484, "popularity": 58, "genre": "art punk" },
	{ "name": "CHVRCHES", "follower": 1118420, "popularity": 73, "genre": "electropop" },
	{ "name": "Best Coast", "follower": 268988, "popularity": 55, "genre": "art pop" },
	{ "name": "The Airborne Toxic Event", "follower": 160327, "popularity": 52, "genre": "indie pop" },
	{ "name": "Ripe", "follower": 47819, "popularity": 52, "genre": "boston indie" },
	{ "name": "The Fratellis", "follower": 574298, "popularity": 63, "genre": "alternative rock" },
	{ "name": "Hank Williams, Jr.", "follower": 753770, "popularity": 69, "genre": "country" },
	{ "name": "Simple Plan", "follower": 2432878, "popularity": 72, "genre": "canadian pop punk" },
	{ "name": "Cody Jinks", "follower": 317932, "popularity": 70, "genre": "modern southern rock" },
	{ "name": "Thrice", "follower": 321172, "popularity": 60, "genre": "modern rock" },
	{ "name": "Mariah Carey", "follower": 5515641, "popularity": 79, "genre": "dance pop" },
	{ "name": "Common Kings", "follower": 160558, "popularity": 59, "genre": "jawaiian" },
	{ "name": "Diana Ross", "follower": 1036275, "popularity": 70, "genre": "adult standards" },
	{ "name": "Ms. Lauryn Hill", "follower": 1451338, "popularity": 70, "genre": "conscious hip hop" },
	{ "name": "Miranda Lambert", "follower": 2253959, "popularity": 72, "genre": "contemporary country" },
	{ "name": "Chris Young", "follower": 1818906, "popularity": 72, "genre": "contemporary country" },
	{ "name": "Volbeat", "follower": 1529193, "popularity": 74, "genre": "alternative metal" },
	{ "name": "The Birthday Massacre", "follower": 124773, "popularity": 55, "genre": "canadian rock" },
	{ "name": "Trampled by Turtles", "follower": 251274, "popularity": 59, "genre": "bluegrass" },
	{ "name": "The Wood Brothers", "follower": 147848, "popularity": 61, "genre": "blues rock" },
	{ "name": "The Mountain Goats", "follower": 218269, "popularity": 59, "genre": "alternative rock" },
	{ "name": "Stephen Lynch", "follower": 94152, "popularity": 48, "genre": "comedy" },
	{ "name": "Snow Patrol", "follower": 1961262, "popularity": 72, "genre": "irish rock" },
	{ "name": "Amy Grant", "follower": 128222, "popularity": 57, "genre": "adult standards" },
	{ "name": "Keith Sweat", "follower": 1119540, "popularity": 61, "genre": "dance pop" },
	{ "name": "Chick Corea", "follower": 183983, "popularity": 55, "genre": "bebop" },
	{ "name": "Andrew Bird", "follower": 401223, "popularity": 63, "genre": "art pop" },
	{ "name": "Moneybagg Yo", "follower": 1294079, "popularity": 80, "genre": "rap" },
	{ "name": "As I Lay Dying", "follower": 568624, "popularity": 63, "genre": "alternative metal" },
	{ "name": "Los Enanitos Verdes", "follower": 2015104, "popularity": 72, "genre": "argentine rock" },
	{ "name": "Kenny Chesney", "follower": 2905636, "popularity": 76, "genre": "contemporary country" },
	{ "name": "Madness", "follower": 432923, "popularity": 64, "genre": "dance rock" },
	{ "name": "HYUKOH", "follower": 239425, "popularity": 57, "genre": "k-indie" },
	{ "name": "Real Estate", "follower": 326072, "popularity": 62, "genre": "art pop" },
	{ "name": "RY X", "follower": 266777, "popularity": 67, "genre": "chamber pop" },
	{ "name": "Boombox Cartel", "follower": 162803, "popularity": 59, "genre": "bass trap" },
	{ "name": "George Strait", "follower": 1852039, "popularity": 75, "genre": "contemporary country" },
	{ "name": "Kasbo", "follower": 92743, "popularity": 63, "genre": "catstep" },
	{ "name": "John Prine", "follower": 262645, "popularity": 75, "genre": "country rock" },
	{ "name": "Leslie Odom Jr.", "follower": 125054, "popularity": 73, "genre": "broadway" },
	{ "name": "Glass Animals", "follower": 1105957, "popularity": 73, "genre": "gauze pop" },
	{ "name": "The Smashing Pumpkins", "follower": 2676944, "popularity": 73, "genre": "alternative metal" },
	{ "name": "THE WLDLFE", "follower": 29279, "popularity": 48, "genre": "electropop" },
	{ "name": "Less Than Jake", "follower": 243138, "popularity": 58, "genre": "modern ska punk" },
	{ "name": "Jill Scott", "follower": 1052133, "popularity": 61, "genre": "funk" },
	{ "name": "Ronnie Milsap", "follower": 207149, "popularity": 57, "genre": "classic country pop" },
	{ "name": "Snoop Dogg", "follower": 5728710, "popularity": 84, "genre": "g funk" },
	{ "name": "Cheap Trick", "follower": 755115, "popularity": 65, "genre": "album rock" },
	{ "name": "Brett Eldredge", "follower": 1096742, "popularity": 65, "genre": "adult standards" },
	{ "name": "Ramon Ayala Y Sus Bravos Del Norte", "follower": 210712, "popularity": 66, "genre": "grupera" },
	{ "name": "The Aquabats!", "follower": 71033, "popularity": 47, "genre": "comic" },
	{ "name": "Man\u00e1", "follower": 5241859, "popularity": 78, "genre": "latin" },
	{ "name": "Pepe Aguilar", "follower": 2069960, "popularity": 74, "genre": "grupera" },
	{ "name": "Between The Buried And Me", "follower": 179413, "popularity": 50, "genre": "alternative metal" },
	{ "name": "Joywave", "follower": 165672, "popularity": 61, "genre": "indie pop" },
	{ "name": "Heidi Newfield", "follower": 20394, "popularity": 43, "genre": "contemporary country" },
	{ "name": "Code Orange", "follower": 110196, "popularity": 58, "genre": "pennsylvania hardcore" },
	{ "name": "Slow Magic", "follower": 103735, "popularity": 49, "genre": "chillwave" },
	{ "name": "MEMBA", "follower": 35258, "popularity": 57, "genre": "bass trap" },
	{ "name": "Justine Skye", "follower": 323499, "popularity": 57, "genre": "alternative r&b" },
	{ "name": "Lost Dog Street Band", "follower": 40635, "popularity": 50, "genre": "new americana" },
	{ "name": "Taikoproject", "follower": 209, "popularity": 2, "genre": "taiko" },
	{ "name": "Los Lobos", "follower": 82150, "popularity": 60, "genre": "roots rock" },
	{ "name": "HELLYEAH", "follower": 431792, "popularity": 58, "genre": "alternative metal" },
	{ "name": "Dashboard Confessional", "follower": 412486, "popularity": 61, "genre": "emo" },
	{ "name": "Mitchell Tenpenny", "follower": 132162, "popularity": 69, "genre": "contemporary country" },
	{ "name": "Vince Gill", "follower": 304821, "popularity": 63, "genre": "country" },
	{ "name": "Ricky Skaggs", "follower": 60647, "popularity": 53, "genre": "bluegrass" },
	{ "name": "Tasha Cobbs Leonard", "follower": 339904, "popularity": 61, "genre": "gospel" },
	{ "name": "Ben Rector", "follower": 228825, "popularity": 67, "genre": "acoustic pop" },
	{ "name": "Squeeze", "follower": 171787, "popularity": 55, "genre": "art rock" },
	{ "name": "The Sword", "follower": 145240, "popularity": 51, "genre": "doom metal" },
	{ "name": "The Devil Makes Three", "follower": 208507, "popularity": 57, "genre": "indie folk" },
	{ "name": "Rickie Lee Jones", "follower": 102602, "popularity": 47, "genre": "country rock" },
	{ "name": "Here Come The Mummies", "follower": 27716, "popularity": 39, "genre": "funk rock" },
	{ "name": "Frank Marino & Mahogany Rush", "follower": 13464, "popularity": 31, "genre": "blues rock" },
	{ "name": "Rival Sons", "follower": 284773, "popularity": 58, "genre": "alternative roots rock" },
	{ "name": "Eric Hutchinson", "follower": 115217, "popularity": 52, "genre": "acoustic pop" },
	{ "name": "Riff Raff", "follower": 147521, "popularity": 56, "genre": "trap" },
	{ "name": "Lettuce", "follower": 131500, "popularity": 53, "genre": "funk" },
	{ "name": "Caamp", "follower": 140839, "popularity": 68, "genre": "indie folk" },
	{ "name": "Michael Kiwanuka", "follower": 764244, "popularity": 70, "genre": "british soul" },
	{ "name": "Black Stone Cherry", "follower": 357714, "popularity": 59, "genre": "alternative metal" },
	{ "name": "Faith No More", "follower": 1049224, "popularity": 66, "genre": "alternative metal" },
	{ "name": "Keith Urban", "follower": 3656271, "popularity": 75, "genre": "australian country" },
	{ "name": "Jeff Beck", "follower": 409747, "popularity": 56, "genre": "album rock" },
	{ "name": "Peter Frampton", "follower": 621584, "popularity": 60, "genre": "album rock" },
	{ "name": "Passenger", "follower": 2516098, "popularity": 75, "genre": "folk-pop" },
	{ "name": "Nick Mason", "follower": 6992, "popularity": 35, "genre": "art rock" },
	{ "name": "OneRepublic", "follower": 9742035, "popularity": 84, "genre": "dance pop" },
	{ "name": "Deacon Blue", "follower": 125295, "popularity": 54, "genre": "britpop" },
	{ "name": "Paul Weller", "follower": 278129, "popularity": 57, "genre": "britpop" },
	{ "name": "Dermot Kennedy", "follower": 588819, "popularity": 76, "genre": "folk-pop" },
	{ "name": "Wolfmother", "follower": 649433, "popularity": 64, "genre": "alternative rock" },
	{ "name": "Gin Blossoms", "follower": 365751, "popularity": 58, "genre": "alternative rock" },
	{ "name": "Stephen Marley", "follower": 426379, "popularity": 63, "genre": "modern reggae" },
	{ "name": "Marvin Sapp", "follower": 350905, "popularity": 56, "genre": "gospel" },
	{ "name": "B\u00e9la Fleck and the Flecktones", "follower": 56097, "popularity": 43, "genre": "jam band" },
	{ "name": "Angel Olsen", "follower": 265373, "popularity": 61, "genre": "alternative americana" },
	{ "name": "Black Pumas", "follower": 155085, "popularity": 62, "genre": "funk" },
	{ "name": "The Holdup", "follower": 38048, "popularity": 53, "genre": "jawaiian" },
	{ "name": "Sharon Van Etten", "follower": 301750, "popularity": 64, "genre": "art pop" },
	{ "name": "David Ryan Harris", "follower": 29582, "popularity": 38, "genre": "acoustic pop" },
	{ "name": "Jon Pardi", "follower": 980102, "popularity": 75, "genre": "contemporary country" },
	{ "name": "H\u00e9ctor Acosta \"El Torito\"", "follower": 393618, "popularity": 59, "genre": "bachata" },
	{ "name": "Bon Iver", "follower": 2604270, "popularity": 76, "genre": "chamber pop" },
	{ "name": "Watkins Family Hour", "follower": 5868, "popularity": 38, "genre": "indie folk" },
	{ "name": "Josh Ritter", "follower": 118742, "popularity": 57, "genre": "acoustic pop" },
	{ "name": "Benjamin Gibbard", "follower": 39666, "popularity": 45, "genre": "indie pop" },
	{ "name": "Hatebreed", "follower": 346144, "popularity": 58, "genre": "alternative metal" },
	{ "name": "Dan Tyminski", "follower": 22556, "popularity": 52, "genre": "bluegrass" },
	{ "name": "Christone \"Kingfish\" Ingram", "follower": 45680, "popularity": 45, "genre": "modern blues" },
	{ "name": "Delbert McClinton", "follower": 36643, "popularity": 46, "genre": "blues" },
	{ "name": "Aaron Lewis", "follower": 390313, "popularity": 63, "genre": "alternative metal" },
	{ "name": "Zion & Lennox", "follower": 4306085, "popularity": 82, "genre": "latin" },
	{ "name": "Zapp", "follower": 287153, "popularity": 56, "genre": "funk" },
	{ "name": "Adrenaline Mob", "follower": 43755, "popularity": 41, "genre": "progressive metal" },
	{ "name": "Oysterhead", "follower": 37447, "popularity": 37, "genre": "jam band" },
	{ "name": "Big Bad Voodoo Daddy", "follower": 86646, "popularity": 46, "genre": "electro swing" },
	{ "name": "Foxy Shazam", "follower": 51207, "popularity": 40, "genre": "cincinnati indie" },
	{ "name": "Yola", "follower": 41279, "popularity": 54, "genre": "indie folk" },
	{ "name": "Le Butcherettes", "follower": 35956, "popularity": 34, "genre": "mexican indie" },
	{ "name": "Tommy Emmanuel", "follower": 110226, "popularity": 51, "genre": "fingerstyle" },
	{ "name": "Tab Benoit", "follower": 45916, "popularity": 43, "genre": "blues" },
	{ "name": "Lucky Chops", "follower": 116314, "popularity": 49, "genre": "brass band" },
	{ "name": "Orleans", "follower": 74984, "popularity": 53, "genre": "album rock" },
	{ "name": "A Flock Of Seagulls", "follower": 306422, "popularity": 60, "genre": "dance rock" },
	{ "name": "Armor For Sleep", "follower": 76783, "popularity": 46, "genre": "dreamo" },
	{ "name": "Wednesday 13", "follower": 44558, "popularity": 42, "genre": "horror punk" },
	{ "name": "Fozzy", "follower": 112868, "popularity": 57, "genre": "alternative metal" },
	{ "name": "Electric Guest", "follower": 253046, "popularity": 61, "genre": "alternative dance" },
	{ "name": "Fu Manchu", "follower": 135568, "popularity": 48, "genre": "alternative metal" },
	{ "name": "Lagwagon", "follower": 171878, "popularity": 54, "genre": "melodic hardcore" },
	{ "name": "Tyrese", "follower": 1378802, "popularity": 59, "genre": "dance pop" }
]
