{
	"NY": 22,
	"PA": 137,
	"MN": 12,
	"IL": 189,
	"TN": 161,
	"WA": 101,
	"WI": 45,
	"CT": 97,
	"GA": 157,
	"CO": 88,
	"UT": 55,
	"TX": 194,
	"FL": 208,
	"NC": 92,
	"MI": 117,
	"OK": 42,
	"CA": 215,
	"SD": 13,
	"SC": 13,
	"MS": 20,
	"IN": 105,
	"AL": 31,
	"NV": 168,
	"OH": 96,
	"NM": 24,
	"MT": 7,
	"LA": 30,
	"KY": 24,
	"AR": 15,
	"ID": 49,
	"VA": 41,
	"IA": 14,
	"AZ": 19,
	"MD": 41,
	"NE": 19,
	"KS": 3,
	"HI": 5,
	"MO": 1
}
